DS607 - Project2
…
Lets Analyze this data 

Now that we have a long, focused data set, we can go ahead and try to perform the requested analysis. Because of the many stations, I will forgo analyzing a particular stations number of riders but this analysis can be performed using the subway_clean data set.

Ridership per Borough per Year

riders_per_borough <- subway_clean %>%
  group_by(borough, year) %>%
  summarize(avg_riders = mean(riders, na.rm = TRUE), .groups = "drop")

riders_per_borough

## # A tibble: 24 x 3
##    borough   year  avg_riders
##    <chr>     <chr>      <dbl>
##  1 Brooklyn  2013    2371925.
##  2 Brooklyn  2014    2437738.
##  3 Brooklyn  2015    2468462.
##  4 Brooklyn  2016    2449301.
##  5 Brooklyn  2017    2416386.
##  6 Brooklyn  2018    2358161.
##  7 Manhattan 2013    8037119.
##  8 Manhattan 2014    8250454.
##  9 Manhattan 2015    8223157.
## 10 Manhattan 2016    8189785.
## # ... with 14 more rows
…
